{
  "by" : "avibryant",
  "id" : 30004,
  "parent" : 29841,
  "text" : "Since you mention the words \"smalltalk\", \"seaside\", and \"dabble\" ;), drop me a note - avi@dabbledb.com.",
  "time" : 1182499784,
  "type" : "comment"
}
