{
  "by" : "teacherjames",
  "descendants" : 7,
  "id" : 30035,
  "kids" : [ 30037, 30052, 30041, 30040, 30054 ],
  "score" : 1,
  "time" : 1182520240,
  "title" : "Finding a VC Mentor",
  "type" : "story",
  "url" : ""
}
