{
  "by" : "teacherjames",
  "id" : 30041,
  "parent" : 30035,
  "text" : "No, that is not normal at all. We have been trying to implement GOOGLE Adwords on our site, and had some trouble with it. Maybe that's what is bugging it up. I'm checking on it right now. ",
  "time" : 1182522050,
  "type" : "comment"
}
