{
  "by" : "bootload",
  "id" : 30059,
  "parent" : 30032,
  "text" : "<i>\"... the Founders Fund is a different entity run by some of the same people. ...\"</i><p>So they do. Thanks for that, the errors mine ~ <a href=\"http://www.thefoundersfund.com/team_bios.html\" rel=\"nofollow\">http://www.thefoundersfund.com/team_bios.html</a> & <a href=\"http://www.thefoundersfund.com/portfolio.html\" rel=\"nofollow\">http://www.thefoundersfund.com/portfolio.html</a>",
  "time" : 1182528927,
  "type" : "comment"
}
