{
  "by" : "dawie",
  "descendants" : 2,
  "id" : 30079,
  "kids" : [ 30142 ],
  "score" : 3,
  "time" : 1182532794,
  "title" : "iPhoney : Looking for a way to see how your web creations will look on iPhone?",
  "type" : "story",
  "url" : "http://www.marketcircle.com/iphoney/"
}
