{
  "by" : "dawie",
  "id" : 30083,
  "parent" : 30069,
  "text" : "I think .com is the way to go especially if you are working on a web application. At grabagooddomain 99% of people request .com domain names.",
  "time" : 1182533587,
  "type" : "comment"
}
