{
  "by" : "iloveyouocean",
  "id" : 30081,
  "kids" : [ 30448 ],
  "parent" : 30068,
  "text" : "Networks:Social Networks :: Advertising:Social Advertising ?<p>Networks:Advertising :: Social Networks: Social Advertising?<p>If not social advertising, then what?  What would social advertising look like (and I dont think 'viral advertising' is the complete answer)  Perhaps this will be a fruitful thought prompt.  ",
  "time" : 1182533151,
  "type" : "comment"
}
