{
  "by" : "byrneseyeview",
  "id" : 30123,
  "parent" : 30099,
  "text" : "Slick design -- I especially liked the serene, nerdy Cthulhu in the corner. I'm not sure a real-time question preview is especially useful, but it sure looks good.",
  "time" : 1182540317,
  "type" : "comment"
}
