{
  "by" : "iloveyouocean",
  "descendants" : 6,
  "id" : 30145,
  "kids" : [ 30146, 30336 ],
  "score" : 1,
  "time" : 1182545767,
  "title" : "Should you make a potential lawyer sign an NDA before revealing your idea?",
  "type" : "story",
  "url" : ""
}
