{
  "by" : "iloveyouocean",
  "id" : 30146,
  "kids" : [ 30232, 30151 ],
  "parent" : 30145,
  "text" : "If you are talking to a lawyer, trying to get a feel for whether or not you would like to retain them, should you be worried about them potentially stealing your business idea? If so, is an NDA necessary, and will a lawyer even consider signing, or is this whole issue taken care of by professional legal ethics?  <p>[Of course, if a lawyer/firm started taking ideas they would quickly get a bad rep and it would probably damage their business more than they would gain from the idea.  But just wondering anyways.]",
  "time" : 1182545953,
  "type" : "comment"
}
