{
  "by" : "Psyonic",
  "id" : 30157,
  "parent" : 28900,
  "text" : "I'm not sure I agree with you that Steve Jobs ideas about technology have improved with age.  His ideas 20 years ago were just as groundbreaking (for the time) as his current ones.",
  "time" : 1182547629,
  "type" : "comment"
}
