{
  "by" : "gyro_robo",
  "id" : 30181,
  "parent" : 29821,
  "text" : "Yes.  I don't think start-ups need to be super-careful about <i>hiring</i>, they need to be careful about <i>evaluating</i> and <i>retaining</i>.  The only way you know if someone is good or not is to give them a shot.<p>I would have no trouble hiring someone, but they have to get up to speed quickly, as I also have no trouble firing someone.  Hiring should be flexible and provisional.\n",
  "time" : 1182550249,
  "type" : "comment"
}
