{
  "by" : "amichail",
  "id" : 30199,
  "kids" : [ 30202 ],
  "parent" : 30196,
  "text" : "<a href=\"http://www.facebook.com/apps/application.php?id=2349954053&b\" rel=\"nofollow\">http://www.facebook.com/apps/application.php?id=2349954053&b</a>",
  "time" : 1182556042,
  "type" : "comment"
}
