{
  "by" : "immad",
  "id" : 30193,
  "kids" : [ 30329 ],
  "parent" : 30192,
  "text" : "socialmoth: <a href=\"http://apps.facebook.com/socialmoth/\" rel=\"nofollow\">http://apps.facebook.com/socialmoth/</a> - Like the integration idea but it looks a bit rushed.",
  "time" : 1182553819,
  "type" : "comment"
}
