{
  "by" : "immad",
  "id" : 30206,
  "parent" : 30192,
  "text" : "Social Picks: <a href=\"http://apps.facebook.com/socialpicks/\" rel=\"nofollow\">http://apps.facebook.com/socialpicks/</a><p>Summer 2007 yc startup",
  "time" : 1182559997,
  "type" : "comment"
}
