{
  "by" : "staunch",
  "id" : 30253,
  "parent" : 30182,
  "text" : "I want my office-office to be as similar to my home-office as possible. Not even the perks at Google get anywhere close to being as nice as my own modest home-office.<p>Technology companies mine mental energy from programmers and  perks are the water they use to soften the earth. :D",
  "time" : 1182604092,
  "type" : "comment"
}
