{
  "by" : "gibsonf1",
  "id" : 30256,
  "kids" : [ 30277 ],
  "parent" : 30246,
  "text" : "I was talking to one of the Iphone sw team members last weekend, and according to him, what is phenomenal about the phone is the UI - unlike anything out there.  A complete change over all other phones on the market.  He says the tv commercials do not come close to capturing what it is like to use the phone.  We'll find out soon enough.",
  "time" : 1182605056,
  "type" : "comment"
}
