{
  "by" : "vlad",
  "id" : 20015,
  "kids" : [ 20061 ],
  "parent" : 19994,
  "text" : "Hey, Paul, where do you think Viaweb would have been in 1998 had you not used a PR firm?  Would you have kept your PR firm in 2007, switched to Google Adsense, or both?  Also, did you do any advertising at the time, or have affiliates or resellers of your service, other than PR?  I seem to remember VIAWEB banner ads.  Thanks.",
  "time" : 1178488267,
  "type" : "comment"
}
