{
  "by" : "gibsonf1",
  "id" : 20025,
  "kids" : [ 20028 ],
  "parent" : 20017,
  "text" : "What is your experience with Hunchentoot so far?  It sounds pretty impressive from the specs.",
  "time" : 1178492787,
  "type" : "comment"
}
