{
  "by" : "jamesbritt",
  "id" : 20029,
  "kids" : [ 20041 ],
  "parent" : 20018,
  "text" : "If I just want a quick script, I'll just use Ruby without Rails.  Plain erb. Or Nitro, or Merb.  There are  several options for using Ruby for Web apps/sites without having to take on the Rails stack. <p>Rails may be a niche tool, but it's not the only Web option for Ruby developers.",
  "time" : 1178494272,
  "type" : "comment"
}
