{
  "by" : "danw",
  "descendants" : 0,
  "id" : 20026,
  "score" : 1,
  "time" : 1178493024,
  "title" : "Interview with Amie Street",
  "type" : "story",
  "url" : "http://mindpetals.com/blog/2007/05/mp-radio-show-1-amie-street-speaks-out/"
}
