{
  "by" : "abstractbill",
  "id" : 20028,
  "parent" : 20025,
  "text" : "Hunchentoot is awesome - very comprehensive and very easy to work with.  Web development has never been so easy (before I switched I was using Araneida for most things, and mod_lisp for a few others).<p>I can't say I've tested it with huge loads, but it's been very stable so far.",
  "time" : 1178494062,
  "type" : "comment"
}
