{
  "by" : "nick_a",
  "id" : 20036,
  "parent" : 20010,
  "text" : "I have this in my .emacs file so I can easily search lispdoc from within emacs<p><a href=\"http://paste.lisp.org/display/40846\" rel=\"nofollow\">http://paste.lisp.org/display/40846</a>",
  "time" : 1178495549,
  "type" : "comment"
}
