{
  "by" : "vlad",
  "descendants" : 4,
  "id" : 20085,
  "kids" : [ 20404, 20177, 20266 ],
  "score" : 14,
  "time" : 1178510810,
  "title" : "Some photos of PayPal in its early days",
  "type" : "story",
  "url" : "http://www.levchin.com/paypal-slideshow/1.html"
}
