{
  "by" : "mattjaynes",
  "descendants" : 0,
  "id" : 20093,
  "score" : 1,
  "time" : 1178513116,
  "title" : "Comcast Teams Up With Zimbra, Plaxo To Launch SmartZone Communication Hub",
  "type" : "story",
  "url" : "http://www.readwriteweb.com/archives/zimbra_comcast_plaxo_hp.php"
}
