{
  "by" : "danw",
  "descendants" : 0,
  "id" : 20148,
  "score" : 1,
  "time" : 1178534518,
  "title" : "Don't Assume Users Want All Ths Technology",
  "type" : "story",
  "url" : "http://ipcarrier.blogspot.com/2007/05/dont-assume-users-want-all-ths.html"
}
