{
  "by" : "theudude2002",
  "descendants" : 0,
  "id" : 20151,
  "score" : 1,
  "time" : 1178536728,
  "title" : "Web App Cool, but Not Useful Enough? Try Data Onramps",
  "type" : "story",
  "url" : "http://www.darowski.com/tracesofinspiration/2007/05/06/web-app-cool-but-not-useful-enough-try-data-onramps/"
}
