{
  "by" : "gibsonf1",
  "descendants" : 0,
  "id" : 20158,
  "score" : 3,
  "time" : 1178538140,
  "title" : "Legal troubles mount for YouTube",
  "type" : "story",
  "url" : "http://news.com.com/Legal+troubles+mount+for+YouTube/2100-1030_3-6181753.html?tag=nefd.top"
}
