{
  "by" : "bootload",
  "id" : 20167,
  "parent" : 20128,
  "text" : "<i>'... Great hackers also generally insist on using open source software. Not just because it's better, but because it gives them more control. Good hackers insist on control ...'</i> ~ <a href=\"http://www.paulgraham.com/gh.html\" rel=\"nofollow\">http://www.paulgraham.com/gh.html</a><p>you might run into problems ( '7. Choosing the Wrong Platform' ~ <a href=\"http://www.paulgraham.com/startupmistakes.html)\" rel=\"nofollow\">http://www.paulgraham.com/startupmistakes.html)</a> and here (find people to work on it ~ Great Hackers, Ibid.). <p>Is this the server platform or client? The thing I don't get is also the extra cost in dollars. MS is not cheap.",
  "time" : 1178541837,
  "type" : "comment"
}
