{
  "by" : "Tichy",
  "id" : 20160,
  "parent" : 19883,
  "text" : "I thought the advertising companies would just track how many  ads are being downloaded from their servers? Also I don't understand how the comScore approach is better than Alexa? Both seem to be applications that run on unwitting user's desktops and monitor their behaviour.<p>Lastly, why are VCas looking at Alexa numbers if they could simply look at the server logs instead?",
  "time" : 1178538226,
  "type" : "comment"
}
