{
  "by" : "staunch",
  "descendants" : 0,
  "id" : 20175,
  "score" : 1,
  "time" : 1178543744,
  "title" : "Great Weekly Podcast: This Week in Tech (TWiT) with Leo Laporte",
  "type" : "story",
  "url" : "http://www.twit.tv/TWiT"
}
