{
  "by" : "transburgh",
  "descendants" : 0,
  "id" : 20174,
  "score" : 3,
  "time" : 1178543302,
  "title" : "Times are Good Again, but it ain't no 1999",
  "type" : "story",
  "url" : "http://www.gobignetwork.com/wil/2007/5/7/times-are-good-again-but-it-aint-no-1999/10148/view.aspx"
}
