{
  "by" : "staunch",
  "descendants" : 1,
  "id" : 20176,
  "kids" : [ 20185 ],
  "score" : 1,
  "time" : 1178543874,
  "title" : "TWiT #96: The Digg revolt, inside and out, why a Microsoft Yahoo merger makes no sense, and the My Space candidate... ",
  "type" : "story",
  "url" : "http://www.twit.tv/96"
}
