{
  "by" : "farmer",
  "descendants" : 0,
  "id" : 20180,
  "score" : 1,
  "time" : 1178544819,
  "title" : "Windows Live Hotmail Debuts",
  "type" : "story",
  "url" : "http://www.techcrunch.com/2007/05/07/windows-live-hotmail-debuts/"
}
