{
  "by" : "startupper",
  "descendants" : 6,
  "id" : 20187,
  "kids" : [ 20214, 20450, 20188, 20360 ],
  "score" : 5,
  "time" : 1178547068,
  "title" : "What Is Your Definition of Startup Founder(s)?",
  "type" : "story",
  "url" : ""
}
