{
  "by" : "omouse",
  "id" : 20195,
  "parent" : 20165,
  "text" : "\"For most people, Free Online Dating is way too much like personals in the newspaper so they don't bother.\"<p>Yeah it's a bit...not creepy but not the norm.<p>Your prediction has a flaw: it assumes that it'll grow large enough to be attractive to porn spammers :P<p>Also, I still don't see what there is to have \"work\". It's just basic features that I'd expect any social networking site to have. There's nothing dating-specific and no hints seem to be dropped as to what's going to be added.",
  "time" : 1178548797,
  "type" : "comment"
}
