{
  "by" : "farmer",
  "descendants" : 1,
  "id" : 20198,
  "kids" : [ 20391 ],
  "score" : 11,
  "time" : 1178549094,
  "title" : "Beam It Down From the Web, Scotty",
  "type" : "story",
  "url" : "http://www.nytimes.com/2007/05/07/technology/07copy.html?ex=1336190400&en=dd0d6ec37f495bcd&ei=5090&partner=rssuserland&emc=rss"
}
