{
  "by" : "pg",
  "id" : 20201,
  "kids" : [ 23813 ],
  "parent" : 20032,
  "text" : "One thing I dislike about the phrase \"lucky or smart\" is that it excludes a third quality more important than either of those two: energy.  <p>All the successful startup founders I know are lucky, smart, and driven-- but above all, driven.",
  "time" : 1178550240,
  "type" : "comment"
}
