{
  "by" : "mojuba",
  "id" : 20223,
  "parent" : 20147,
  "text" : "I've been leasing servers on 1&1 for a long time. They claim to be the largest hosting company in the world, and they are definitely not the worst. Unfortunately they dropped all their cheap server options last year and left $99 as the cheapest.\n<a href=\"http://order.1and1.com/xml/order/Server\" rel=\"nofollow\">http://order.1and1.com/xml/order/Server</a>",
  "time" : 1178557351,
  "type" : "comment"
}
