{
  "by" : "arete",
  "id" : 20225,
  "parent" : 20147,
  "text" : "I would get a Xen VPS since you get a guaranteed amount of CPU, RAM, disk, and bandwidth as well as full control of the kernel, firewall, software, etc.  I've been very happy with <a href=\"http://serveraxis.com\" rel=\"nofollow\">http://serveraxis.com</a> as well as <a href=\"http://unixshell.com\" rel=\"nofollow\">http://unixshell.com</a> but definitely do a bit of research first, <a href=\"http://www.webhostingtalk.com/\" rel=\"nofollow\">http://www.webhostingtalk.com/</a> is a great resource for that.",
  "time" : 1178557361,
  "type" : "comment"
}
