{
  "by" : "entrepreneur",
  "descendants" : 0,
  "id" : 20231,
  "score" : 1,
  "time" : 1178558009,
  "title" : "How the New Rich Define Success",
  "type" : "story",
  "url" : "http://mindfulentrepreneur.com/blog/2007/05/07/how-the-new-rich-define-success/"
}
