{
  "by" : "schoudha",
  "id" : 20239,
  "kids" : [ 20241, 20243, 20339 ],
  "parent" : 20219,
  "text" : "Was Aaron Swartz a founder of Reddit? I thought he joined Steve and Alexis after Infogami didn't work out. <p>Either way, he's a great hacker and that was great candid interview. <p>\n",
  "time" : 1178560237,
  "type" : "comment"
}
