{
  "by" : "jpedrosa",
  "id" : 20262,
  "kids" : [ 20410 ],
  "parent" : 20219,
  "text" : "I am reminded of how the folks who do most of the work almost never are the ones who appear the most (speak, write, show up)...<p>Speaking of which... :-)",
  "time" : 1178565260,
  "type" : "comment"
}
