{
  "by" : "especkman",
  "id" : 20267,
  "kids" : [ 20286, 20272, 20275 ],
  "parent" : 20249,
  "text" : "I don't quite buy the analogy.  Manufacturing was a profitable business (particularly the auto industry) during the union heyday.  The same can hardly be said for most startups investing in infrastructure during the dot com bubble.",
  "time" : 1178566253,
  "type" : "comment"
}
