{
  "by" : "rowetim",
  "id" : 20278,
  "parent" : 20031,
  "text" : "This is Tim Rowe at CIC.  Pricing is in the $500-$1000/person/mo range if spaces are used efficiently (we have 250 different spaces, so these are just guidelines).  Availability is the main reason we want you to call in: availability changes hour to hour.  One day we will come up with a cool web app to let you take a virtual tour of available spaces.\n",
  "time" : 1178567273,
  "type" : "comment"
}
