{
  "by" : "pg",
  "id" : 20275,
  "kids" : [ 20289 ],
  "parent" : 20267,
  "text" : "Actually there were a huge number of car companies, nearly all of which died.  It was very much like happened with Internet startups.  In fact during the Bubble Rupert Murdoch used the history of the car business as an example to explain why he wasn't in a rush to invest in Internet companies.",
  "time" : 1178566892,
  "type" : "comment"
}
