{
  "by" : "natrius",
  "id" : 20281,
  "kids" : [ 20288, 20302 ],
  "parent" : 20263,
  "text" : "A safe work environment should be guaranteed by legislation. Beyond that, if you don't like your job, you should find a new one. Democratic practices are completely unrelated to a work environment. No one is ruling over you. You're free to go.<p>Granted, switching jobs isn't a simple thing to do, mainly because our labor market is so inefficient. There are other things attached to having a job, like healthcare, that complicate things. If only we separated healthcare from employment somehow...<p>Out of curiosity, what gains did you get from forming a union?",
  "time" : 1178567881,
  "type" : "comment"
}
