{
  "by" : "sabat",
  "id" : 20310,
  "kids" : [ 20389 ],
  "parent" : 20147,
  "text" : "Dreamhost for early stages + proof of concept. Why? Because 1) they're as cheap as anyone, and 2) they give you more bandwidth than anyone else. For early stages, I think they'll work just fine.<p>Once you see a growth pattern, though, you'll want to consider VPS or dedicated hosting. VPS should work well if the ISP can guarantee host performance (CPU, disk, etc).<p>A few options:<p>- Amazon EC2. This is cool because you only pay for what you use -- your bandwidth is measured and you're charged for what you actually use, not for a fixed limit. For disk space, it uses Amazon S3, where you also pay for what you use. The Xen machine specs are good enough for most of us. And, Amazon just lowered prices on S3 and EC2. Bad news, though: EC2 is still in limited beta. And who knows when they'll be out of that. :-(<p>- Sun's deal with startups, which was posted here the other day, looks pretty good, especially the Joyant hosting deal @ <a href=\"http://www.joyent.com/partners/sun/sse.\" rel=\"nofollow\">http://www.joyent.com/partners/sun/sse.</a> Only \"problem\" is that you're using Solaris. For some people that is not a problem.<p>- actual VPS hosting: in my cursory search, I think Teknet unmanaged (<a href=\"http://www.tektonic.net/unmanaged.html)\" rel=\"nofollow\">http://www.tektonic.net/unmanaged.html)</a> looks pretty good, as long as you're technical enough to handle the virtual server yourself. (And you should be.) Their most expensive pkg gives you more disk space than other providers seem to (80G), and more bandwidth (800Gb) -- to me those are  big issues. That's for $100/mo, which is a good deal IMHO. Unix-only, CentOS, Fedora Core, Suse, Debian, Ubuntu.",
  "time" : 1178572130,
  "type" : "comment"
}
