{
  "by" : "juwo",
  "id" : 20349,
  "parent" : 20316,
  "text" : "The look of your website is very professional. Just curious, did you hire someone? what tools did you use to do it?",
  "time" : 1178582532,
  "type" : "comment"
}
