{
  "by" : "mattculbreth",
  "id" : 10005,
  "kids" : [ 10023 ],
  "parent" : 10001,
  "text" : "This is pretty interesting.  I'm not sure I understand what you mean though about separating databases \"by user\".  Could you elaborate on that?  How would my application's database change if I were a user of this service?",
  "time" : 1175946947,
  "type" : "comment"
}
