{
  "by" : "mattjaynes",
  "id" : 10023,
  "parent" : 10005,
  "text" : "Sure. Basically each user would have their own database file generated on account creation. Then in your app, instead of doing something like:<p>connectDB(\"/path/to/db\")<p>you would do:<p>connectDB(\"/path/to/$user/db\")<p>Also, if you needed to query all of your users data in aggregate, you would use the 'ATTACH' capability of SQLite to essentially create a master database. Note that you will need to design your scheme appropriately (thoughtful table/column naming, etc) for this to work well. See: <a href=\"http://www.sqlite.org/lang_attach.html\">http://www.sqlite.org/lang_attach.html</a>",
  "time" : 1175952308,
  "type" : "comment"
}
