{
  "by" : "busy_beaver",
  "id" : 10030,
  "parent" : 10008,
  "text" : "There's a guy working on a MySQL storage engine that uses S3:<p><a href=\"http://fallenpegasus.livejournal.com/tag/s3\">http://fallenpegasus.livejournal.com/tag/s3</a><p>It's still at a very early stage in terms of implemented features, but he seems to be moving forward rapidly.<p>I have no idea what kind of performance he's getting -- I'm planning to check out the MySQL source sometime next week and do a test build. Extremely cool idea. :-)<p>",
  "time" : 1175953750,
  "type" : "comment"
}
