{
  "by" : "blader",
  "id" : 10036,
  "kids" : [ 10282 ],
  "parent" : 10034,
  "text" : "I also recommend the rest of the articles in their \"IA Notebook\" on design questions of all kinds: <a href=\"http://www.informationarchitects.jp/ia-notebook\">http://www.informationarchitects.jp/ia-notebook</a>",
  "time" : 1175955256,
  "type" : "comment"
}
