{
  "by" : "busy_beaver",
  "id" : 10040,
  "parent" : 9854,
  "text" : "That's a great looking font --- elegant, but still LEGIBLE. <p>I found the download page here:<p><a href=\"http://www.levien.com/type/myfonts/inconsolata.html\">http://www.levien.com/type/myfonts/inconsolata.html</a>\n",
  "time" : 1175955687,
  "type" : "comment"
}
