{
  "by" : "raganwald",
  "id" : 10073,
  "kids" : [ 10214 ],
  "parent" : 10011,
  "text" : "Yes. That's how this industry works: everything closed, expensive, and exclusive inexorably becomes open, cheap or even free, and inclusive.\n",
  "time" : 1175962366,
  "type" : "comment"
}
