{
  "by" : "mattculbreth",
  "id" : 10108,
  "parent" : 10054,
  "text" : "Hey that's good!  I like the VP of Sales being forced on people.<p>Thanks for all of the good posts.",
  "time" : 1175967820,
  "type" : "comment"
}
