{
  "by" : "weblivz",
  "id" : 10102,
  "kids" : [ 10483 ],
  "parent" : 9840,
  "text" : "They're are easy target and i had this discussion over drinks with some friend last night. I actually think their software in the last few years and what is coming through is getting great respect from hackers. <p>Also, a few things to remember.<p>1. Search in only 10% done.<p>2. Pervasive devices are taking over as the key interface to systems.<p>3. Collaboration is the big wave on the web.<p>4. Privacy/Trust - things like google apps work for some data (and are a great addition) but add in trust and privacy in business and they're screwed. Open ID is thinking about identity, but there's a long way to go.<p>For these reasons there is a long way to go before anyone can be considered alive or dead. I for one think Google will be overtaken by someone in the not too distant future as well. It may be a resurgent Microsoft - remember Netscape.<p>Oh, the have an ace in their cards. Ray Ozzie is Chief Software Architect (a position Gates himself used to hold) and created probably the more powerful collaboration software in its time at Groove. He's been very quiet recently and his emergence may be their resurgence.<p>Not everyone is going to want to create 5 minute web 2.0 software to get bought by Google - a big change will emerge as happened with Netscape and AltaVista. Stay tuned.",
  "time" : 1175967153,
  "type" : "comment"
}
