{
  "by" : "Elfan",
  "id" : 10117,
  "kids" : [ 10289 ],
  "parent" : 9944,
  "text" : "Its a strange irony that Microsoft's best products (Xbox, Natural Keyboards) are hardware.",
  "time" : 1175969224,
  "type" : "comment"
}
