{
  "by" : "brett",
  "descendants" : 2,
  "id" : 10115,
  "kids" : [ 10118 ],
  "score" : 12,
  "time" : 1175968769,
  "title" : "Amazon Web Services Blog: MySQL Interface to Amazon S3",
  "type" : "story",
  "url" : "http://aws.typepad.com/aws/2007/04/mysql_interface.html"
}
