{
  "by" : "joshwa",
  "id" : 10134,
  "parent" : 10130,
  "text" : "Why on earth did you put that on scribd when a normal blog post would do? Now I just have a hard time reading the poorly rendered text...",
  "time" : 1175971371,
  "type" : "comment"
}
