{
  "by" : "joshwa",
  "id" : 10137,
  "kids" : [ 10290 ],
  "parent" : 10112,
  "text" : "This is what CRV does, right?<p><a href=\"http://www.crv.com/AboutCRV/QuickStart.html\">http://www.crv.com/AboutCRV/QuickStart.html</a>",
  "time" : 1175971697,
  "type" : "comment"
}
