{
  "by" : "amichail",
  "id" : 10149,
  "kids" : [ 10150 ],
  "parent" : 10148,
  "text" : "Other famous people I knew from junior high: Randy Linden and  Mark Vange.<p>Anyone recognize them?<p>As you might guess, I'm a bit jealous!",
  "time" : 1175973840,
  "type" : "comment"
}
