{
  "by" : "dogbert",
  "id" : 10156,
  "parent" : 9770,
  "text" : "Old guy here (54).  Great piece 100% on target.  To quote one of my favorite movies, \"your saying its all swirling around the drain.  Had to end sometime.\" (Chhronicles of Riddick).  Classic disruptive technology (web 2.0) transition, but still about five to ten years away from completion.  Remember, Microsoft, like any adversary, has a vote.<p>A couple of things still slowing down the transition.  <p>1.) Broadband is not yet universal.  Rural areas don't have it always and it they do, it is pricey to get.\n2.) The installed base will use Win OS's for quite a while still (i.e., Office, engineering apps, business apps), my bet is on a ten year transition.\n3.) There is still and will always be value in a stand alone system with an operating system and a cpu onboard for the same reason that the internet was invented.  Millions of independently functional and capable cpu's+OS is a million times more robust than central-source server farms having it all.  It will only take one war and one EMP burst to prove that.",
  "time" : 1175975442,
  "type" : "comment"
}
