{
  "by" : "mukund",
  "descendants" : 8,
  "id" : 10171,
  "kids" : [ 10186, 10432, 10194, 10379 ],
  "score" : 2,
  "time" : 1175980092,
  "title" : "Would love to listen what inspired you to go for a startup",
  "type" : "story",
  "url" : ""
}
