{
  "by" : "mukund",
  "id" : 10207,
  "kids" : [ 10309 ],
  "parent" : 10204,
  "text" : "I remember reading an article that alleged microsoft had \"gifted\" few bloggers with some laptops. Is this author also trying for that ;-)<p>MS word or operating system, if people are given something better and they adapt to it, then MSFT will be history. Regarding huge tons of money in MSFT reserve, those will turn to dust. Money cant buy or stem things ",
  "time" : 1175985354,
  "type" : "comment"
}
