{
  "by" : "mattculbreth",
  "descendants" : 8,
  "id" : 10204,
  "kids" : [ 10426, 10219, 10207, 10205, 10295, 10323 ],
  "score" : 8,
  "time" : 1175984633,
  "title" : "Microsoft dead?  Please.  [Apparently not everyone agrees with Paul]",
  "type" : "story",
  "url" : "http://www.deepjiveinterests.com/2007/04/07/microsoft-dead-please/"
}
