{
  "by" : "Richard",
  "id" : 10278,
  "parent" : 9770,
  "text" : "I would like to accept that MS is dead, but I can't until MacOS and Linux start making a better showing in my webserver logs. MS can't die as long as they still have a lock on the end user.\n",
  "time" : 1175997034,
  "type" : "comment"
}
