{
  "by" : "rolodex",
  "id" : 10282,
  "kids" : [ 10302 ],
  "parent" : 10036,
  "text" : "Dude, have you seen that WaPo thing? <p><a href=\"http://www.informationarchitects.jp/washington-post-redesign-as-a-wiki\">http://www.informationarchitects.jp/washington-post-redesign-as-a-wiki</a>\n",
  "time" : 1175997863,
  "type" : "comment"
}
