{
  "by" : "JMiao",
  "id" : 10289,
  "parent" : 10117,
  "text" : "True to a certain extent, but I would say that the XBOX also features pretty nifty software.  Its Dashboard and Blade-UI make for what is arguably the best entertainment computer experience.  Oh, and don't forget XBOX Live.",
  "time" : 1175998713,
  "type" : "comment"
}
