{
  "by" : "bootload",
  "id" : 10286,
  "parent" : 10284,
  "text" : "<a href=\"http://labs.google.com/goog411\">http://labs.google.com/goog411</a> for those that want the url. I've seen the sms version around for a while.  <p><i>'... The service can't understand me. What should I do? ... if you own a mobile phone, use Google SMS instead. ...'</i> [0]<p>I like the comments in the faq if you cannot get the system to understand your query.<p>Reference <p>[0] google labs, \"Q4, 411  faq\"<p><a href=\"http://labs.google.com/goog411/faq.html#not_understand\">http://labs.google.com/goog411/faq.html#not_understand</a><p>",
  "time" : 1175998430,
  "type" : "comment"
}
