{
  "by" : "jey",
  "id" : 10290,
  "kids" : [ 10307 ],
  "parent" : 10137,
  "text" : "Note #1 of \"Why to Not Not Start a Startup\" implies that YC also does convertible debt. <a href=\"http://paulgraham.com/notnot.html#f1n\">http://paulgraham.com/notnot.html#f1n</a>",
  "time" : 1175998886,
  "type" : "comment"
}
