{
  "by" : "mattculbreth",
  "descendants" : 30,
  "id" : 10319,
  "kids" : [ 10365, 10346, 10350, 10322, 10381, 10427, 10338, 10369, 10481, 10394, 10325, 10363, 10459, 10334 ],
  "score" : 11,
  "time" : 1176005758,
  "title" : "Now Don Dodge is writing about Paul's essay",
  "type" : "story",
  "url" : "http://dondodge.typepad.com/the_next_big_thing/2007/04/since_when_does.html"
}
