{
  "by" : "mattculbreth",
  "id" : 10322,
  "kids" : [ 10336 ],
  "parent" : 10319,
  "text" : "\"Sorry to burst your bubble but it was never Microsoft's intent to scare anyone. Microsoft has a huge partner network of over 80,000 companies who enjoy working with Microsoft.\"<p>Eh.  I personally didn't enjoy working with Microsoft.  Strange mix of arrogance and mediocrity.\n",
  "time" : 1176006094,
  "type" : "comment"
}
