{
  "by" : "mynameishere",
  "id" : 10326,
  "parent" : 10293,
  "text" : "At the top of the Wiki, have two text boxes, with the first one editable, and the second automatic:<p>Wiki  [UserEnteredTitle]    [<a href=\"http://wamily.com/wiki/username/UserEnteredTitle.html]\">http://wamily.com/wiki/username/UserEnteredTitle.html]</a><p>Then, non-members can see the text without any fuss.<p>Now that I think about it, I don't see any way to easily link to my homepage:<p><a href=\"http://wamily.com/username/\">http://wamily.com/username/</a>",
  "time" : 1176006828,
  "type" : "comment"
}
