{
  "by" : "jayliew",
  "id" : 10333,
  "parent" : 10331,
  "text" : "The one sentence that stood out the most to me from this article was \"Pick your hill to die on.\"<p>Life's too short to work on something meaningless, a reminder to myself that nothing is more important than working towards your passion. I can see myself old, and on my death bed, regretting not taking the chance to change the world. And that, scares me.",
  "time" : 1176010563,
  "type" : "comment"
}
