{
  "by" : "bootload",
  "id" : 10365,
  "kids" : [ 10383, 10389, 10373 ],
  "parent" : 10319,
  "text" : "Looks like Don has a history of picking winners working for <i>DEC, Forte, Compaq, AltaVista, Napster, Groove, deNovis</i> and now Microsoft. [0]  <p>I love microsofties, they go straight for the throat. The circumspect ex-softies trash MS these days for MS's lack of focus & ability to adapt.  This is because MS has lost their core asset, their API.<p><i>'... The cornerstone of Microsoft's monopoly power and incredibly profitable Windows and Office franchises, which account for virtually all of Microsoft's income and covers up a huge array of unprofitable or marginally profitable product lines, the Windows API  is no longer of much interest to developers ...'</i> [1]<p>There is still some great stuff coming out of MS, but they hardly excite the next generation of developers of software. Some of these issues revolve around the dollar costs associated with owning MS operating systems & associated software. Cheaper and more open alternatives don't help. [2]<p>To hear Office, Corporate ownership and X-Box [3]  demonstrates to me the developers have left,  and  <i>marketroids</i> are bleating the 'marketing & business' advantages, where in the past it would have  been technical advantages. [4]<p><i>'... Defaults. Microsoft will design Windows so as to enable computer manufacturers and users to set non-Microsoft programs to operate by default in key categories, such as Web browsing and media playback, in lieu of corresponding end-user functionality in Windows ...'</i> [5]<p>And as for Microsoft being benevolent, all I have to do is look at Don's own first post in his blog to see Microsoft priorities in print. [6]<p>Reference<p>[0] Don Dodge, 'Linked in Bio'<p><a href=\"http://www.linkedin.com/in/dondodge?trk=btn_typepad\">http://www.linkedin.com/in/dondodge?trk=btn_typepad</a><p>[1] Joel Spolsky, 'How Microsoft Lost the API War'<p><a href=\"http://www.joelonsoftware.com/articles/APIWar.html\">http://www.joelonsoftware.com/articles/APIWar.html</a><p><p>[2] Why is it Windows OS has got more expensive, while hardware has got cheaper? It's not distribution nor the OEM's installing the software. So why has MS consistently increased the cost of owning their OS?<p>[3] Well maybe not X-Box. But how many developers have access to X-Box tools, can develop for it & release software?<p>[4] MS did a great job unifying the hardware market from DOS to Windows meaning you just plugged hardware in and it worked. <p>[5] Don Dodge,  19th July 2006, 'Microsoft's 12 principles to promote competition. Read the comments concerning defaults and MS software settings'<p><a href=\"http://dondodge.typepad.com/the_next_big_thing/2006/07/microsofts_12_p.html\">http://dondodge.typepad.com/the_next_big_thing/2006/07/microsofts_12_p.html</a><p>[6] Don Dodge, 'Microsoft's 12 principles to promote competition' Ibid.",
  "time" : 1176019474,
  "type" : "comment"
}
