{
  "by" : "mukund",
  "id" : 10363,
  "parent" : 10319,
  "text" : "LOL people snooping on PG and reading the contents? Well this only shows that they could better spend that time in building better things",
  "time" : 1176017987,
  "type" : "comment"
}
