{
  "by" : "BitGeek",
  "id" : 10377,
  "kids" : [ 36048 ],
  "parent" : 9913,
  "text" : "\nTied how?  Certainly not legally.  When you buy the computer you buy a license... no court would uphold charging people for something and not letting them have it.<p>The \"shrinkwrapped\" license agreements are not really enforcable... at least not in a legitimate (eg: competant) court.\n",
  "time" : 1176021677,
  "type" : "comment"
}
