{
  "by" : "matt",
  "descendants" : 0,
  "id" : 111,
  "kids" : [ 454542 ],
  "score" : 9,
  "time" : 1171915603,
  "title" : "Add a little more random to your product",
  "type" : "story",
  "url" : "http://headrush.typepad.com/creating_passionate_users/2007/01/add_a_little_mo.html"
}
