{
  "by" : "mattc58",
  "id" : 130,
  "kids" : [ 454565 ],
  "parent" : 86,
  "text" : "Looks good.  Probably BaseCamp 2.0.\r\n\r\nI've really gotten to like Trac though, and I've used most of the tools out there.  Trac just gets it done.  I think the biggest plus is the Wiki.",
  "time" : 1171935775,
  "type" : "comment"
}
