{
  "by" : "herdrick",
  "descendants" : 0,
  "id" : 140,
  "kids" : [ 454575 ],
  "score" : 2,
  "time" : 1171952379,
  "title" : "Shopping sites BrowseGoods and BlackDogAir: Visualizations of product relationships.",
  "type" : "story",
  "url" : "http://www.techcrunch.com/2007/02/19/browsegoods-blackdogair-2-new-ways-to-view-shopping/"
}
