{
  "by" : "herdrick",
  "descendants" : 0,
  "id" : 146,
  "kids" : [ 454582 ],
  "score" : 1,
  "time" : 1171956809,
  "title" : "A look at eight multi-person SMS services",
  "type" : "story",
  "url" : "http://www.techcrunch.com/2006/09/27/a-look-at-eight-multi-person-sms-services/"
}
