{
  "by" : "rockstar",
  "dead" : true,
  "descendants" : -1,
  "id" : 160,
  "kids" : [ 169 ],
  "score" : 2,
  "time" : 1171959685,
  "title" : "Did Paul graham really use Arc to make News or is it CLISP?",
  "type" : "story",
  "url" : "http://lisp.teenwag.com"
}
