{
  "by" : "ecuzzillo",
  "id" : 171,
  "kids" : [ 177, 454595 ],
  "parent" : 157,
  "text" : "Disclaimer: I don't have the book.\r\n\r\nGrr! Linebreaks do not appear in the comment text!\r\n\r\nThe premise of the book seems to be that you're going to learn about how to run a startup by reading about successful ones-- that is, you're going to look at a bunch of successful startups, and say Hmm, what makes for a successful startup? \r\n\r\n\r\nAnother way to put it is that you're trying to train a classifier-- how do you tell whether a startup is going to succeed? Well, if it has a, b, and c qualities in x, y, and z amounts. However, a key part in training classifiers is having negative as well as positive examples. It seems that from reading *just* about successful startups, you could incorrectly infer a bunch of necessary qualities for successful startups, when in fact those are qualities of all startups, or those are just qualities of the sample taken, and focusing on them is bogus. Having no direct experience in the matter, I can't give good examples, but it seems like you could fall victim to a breakdancing chicken problem: (made up example) all the interviewed startups wrote software, so writing software is an important step towards having a successful startups. Well, no, but it just happened that the interviewer focused on software startups. If you had examples of failed startups, you'd see that there was just sampling bias to",
  "time" : 1171971117,
  "type" : "comment"
}
