{
  "by" : "__",
  "descendants" : 0,
  "id" : 185,
  "kids" : [ 454607 ],
  "score" : 11,
  "time" : 1171994423,
  "title" : "Richard Feynman and The Connection Machine",
  "type" : "story",
  "url" : "http://www.kurzweilai.net/articles/art0504.html?printable=1"
}
