{
  "by" : "BioGeek",
  "descendants" : 1,
  "id" : 186,
  "kids" : [ 299, 454608 ],
  "score" : 5,
  "time" : 1171994870,
  "title" : "Entrepreneurship In Europe ",
  "type" : "story",
  "url" : "http://www.ventureblog.com/articles/indiv/2006/001250.html"
}
