{
  "by" : "farmer",
  "descendants" : 0,
  "id" : 190,
  "kids" : [ 454614 ],
  "score" : 2,
  "time" : 1172007403,
  "title" : "Interview with Michael Wesch (Web 2.0 video maker)",
  "type" : "story",
  "url" : "http://battellemedia.com/archives/003386.php"
}
