{
  "by" : "farmer",
  "descendants" : 0,
  "id" : 192,
  "kids" : [ 454617 ],
  "score" : 4,
  "time" : 1172009797,
  "title" : "MindMeister: new web-based collaboration startup",
  "type" : "story",
  "url" : "http://www.mindmeister.com/"
}
