{
  "by" : "onebeerdave",
  "descendants" : 0,
  "id" : 204,
  "kids" : [ 454631 ],
  "score" : 5,
  "time" : 1172014142,
  "title" : "Union Square Ventures funds Adaptive Blue",
  "type" : "story",
  "url" : "http://www.techcrunch.com/2007/02/20/union-square-ventures-funds-adaptive-blue/"
}
