{
  "by" : "trever",
  "dead" : true,
  "descendants" : -1,
  "id" : 217,
  "score" : 2,
  "time" : 1172016688,
  "title" : "Is this really web10 again useless sites and more useless information really who reads these sites?",
  "type" : "story",
  "url" : "http://paulgraham.teenwag.com"
}
