{
  "by" : "trever",
  "dead" : true,
  "descendants" : -1,
  "id" : 221,
  "score" : 1,
  "time" : 1172017265,
  "title" : "Is lesser number of results better for Search - First search engine powered by PowerSET",
  "type" : "story",
  "url" : "http://teenwag.com/search?q=Anna+Nicole"
}
