{
  "by" : "jameshong",
  "dead" : true,
  "descendants" : -1,
  "id" : 225,
  "score" : 1,
  "time" : 1172017497,
  "title" : "Click on the lady who looks better.. so hot and HOtorNOT no login required",
  "type" : "story",
  "url" : "http://morecute.com/?channel=46"
}
