{
  "by" : "joe",
  "descendants" : 7,
  "id" : 237,
  "kids" : [ 265, 239, 245, 300, 197697, 238, 256, 454659 ],
  "score" : 10,
  "time" : 1172026630,
  "title" : "Scriggle-it: the ultimate fan management solution for any musician",
  "type" : "story",
  "url" : "http://www.scriggleit.com/"
}
