{
  "by" : "ninwa",
  "id" : 240,
  "kids" : [ 269, 244, 242, 282, 401, 454662 ],
  "parent" : 227,
  "text" : "It's brave to drop everything you've been working so hard for in sights of opportunity, but is it really in the electronic part search market? Sorry, I don't mean to sound negative, but a PhD in physics would have opened such a large expanse of possibilities. You're going to throw it away for a chance at more women and on the whim of one man (PG's) advice. \r\n\r\nBest of luck.",
  "time" : 1172027618,
  "type" : "comment"
}
