{
  "by" : "akkartik",
  "id" : 242,
  "kids" : [ 258, 454665 ],
  "parent" : 240,
  "text" : "Depends on how far along the PhD he is.<p>The social argument was bizarre, I agree. Campuses are great places to meet new people; most of my friends agree that starting work is socially a step down. And they're at least working for large corporations with lots of people in them. Working insane hours at a startup it's unrealistic to expect your social life to be an improvement relative to *anything*.",
  "time" : 1172029292,
  "type" : "comment"
}
