{
  "by" : "greendestiny",
  "id" : 244,
  "kids" : [ 454667 ],
  "parent" : 240,
  "text" : "A PhD is really a lot of grind especially at the end. I don't think you can really do both a startup and a PhD well at the same time. You can't really do either without a reasonable level of commitment so if your heart is with the start-up I say go with it. \r\n\r\nAs for the chicks... I've gotta say they dig the title Dr...",
  "time" : 1172029756,
  "type" : "comment"
}
