{
  "by" : "timg",
  "id" : 249,
  "kids" : [ 454674 ],
  "parent" : 188,
  "text" : "A more visible footer on this page? Just so I can tell if it actually finished loading. \r\n\r\nAlso, at least being able to have paragraphs would be great.",
  "time" : 1172034548,
  "type" : "comment"
}
