{
  "by" : "akkartik",
  "id" : 250,
  "kids" : [ 454676 ],
  "parent" : 248,
  "text" : "I've gotten used to using submit to find the reddit discussion for a page. Turns out there's no duplication-detection here on news.yc yet. Apologies.\r\n\r\nNice that they allow editing the title.",
  "time" : 1172034594,
  "type" : "comment"
}
