{
  "by" : "ashu",
  "descendants" : 1,
  "id" : 254,
  "kids" : [ 683, 454681 ],
  "score" : 17,
  "time" : 1172037232,
  "title" : "Web2.0 HOW-TO design style guide",
  "type" : "story",
  "url" : "http://www.webdesignfromscratch.com/web-2.0-design-style-guide.cfm"
}
