{
  "by" : "wicked",
  "descendants" : 0,
  "id" : 264,
  "kids" : [ 454692 ],
  "score" : 3,
  "time" : 1172042054,
  "title" : "The Game is Afoot - Classic from Eric Sink",
  "type" : "story",
  "url" : "http://software.ericsink.com/articles/Game_Afoot.html"
}
