{
  "by" : "spez",
  "descendants" : 0,
  "id" : 27,
  "kids" : [ 454438 ],
  "score" : 12,
  "time" : 1160489043,
  "title" : "Google Acquires YouTube For $1.6B",
  "type" : "story",
  "url" : "http://www.google.com/press/pressrel/google_youtube.html"
}
