{
  "by" : "kul",
  "descendants" : 0,
  "id" : 276,
  "kids" : [ 454704 ],
  "score" : 34,
  "time" : 1172047319,
  "title" : "Ten rules for web startups",
  "type" : "story",
  "url" : "http://evhead.com/2005/11/ten-rules-for-web-startups.asp"
}
