{
  "by" : "ced",
  "id" : 282,
  "kids" : [ 357, 454710 ],
  "parent" : 240,
  "text" : "A PhD in physics today opens up some opportunities in the one very specific field that you studied. Getting post-doctoral positions is hard; there isn't that much money floating around. I know that I'm dropping out soon.",
  "time" : 1172047882,
  "type" : "comment"
}
