{
  "by" : "mattculbreth",
  "descendants" : 1,
  "id" : 301,
  "kids" : [ 303, 454730 ],
  "score" : 2,
  "time" : 1172061212,
  "title" : "Georgia Business Launch 2007--$100k cash prize for winning startup business",
  "type" : "story",
  "url" : "http://www.tagonline.org/Events_GRA-TAG-Business-Launch.php"
}
