{
  "by" : "bengriffiths",
  "id" : 322,
  "kids" : [ 454752 ],
  "parent" : 312,
  "text" : "For international users:\r\n\r\nS-corp: http://en.wikipedia.org/wiki/S_corporation&#60;br/&#62;\r\nC-corp: http://en.wikipedia.org/wiki/C_corporation\r\n\r\nNot terms I was familiar with [edit] doesn't seem to be recognising line breaks.",
  "time" : 1172072528,
  "type" : "comment"
}
