{
  "by" : "Nick_Smith",
  "id" : 331,
  "kids" : [ 333, 454762 ],
  "parent" : 316,
  "text" : "Oh WOW.  This is an absolute gold mine.  Case studies of dozens of them.  They even have the CEOs of Rotten Tomatoes posting there in response.  This is great.  Thank you so much.",
  "time" : 1172075242,
  "type" : "comment"
}
