{
  "by" : "phyllis",
  "descendants" : 0,
  "id" : 349,
  "kids" : [ 454781 ],
  "score" : 2,
  "time" : 1172080758,
  "title" : "NHL disables Youtube clip embeds",
  "type" : "story",
  "url" : "http://valleywag.com/tech/youtube/nhl-disables-youtube-clip-embeds-238419.php"
}
