{
  "by" : "naish",
  "descendants" : 1,
  "id" : 356,
  "kids" : [ 358, 454787 ],
  "score" : 1,
  "time" : 1172084042,
  "title" : "HOWTO: Form a company (detailed outline of process)",
  "type" : "story",
  "url" : "http://www.startupventuretoolbox.com/Process%20of%20Forming%20a%20Company.htm#Stage%204:%20Pullout%20from%20Employer"
}
