{
  "by" : "pg",
  "id" : 362,
  "kids" : [ 388, 454793 ],
  "parent" : 341,
  "text" : "Yeah, I know.  The site is at least simple and functional, but we should (and will) make it look better soon.",
  "time" : 1172085675,
  "type" : "comment"
}
