{
  "by" : "Harj",
  "dead" : true,
  "descendants" : -1,
  "id" : 371,
  "score" : 1,
  "time" : 1172086965,
  "title" : "Tech IPOs: They're back!",
  "type" : "story",
  "url" : "http://money.cnn.com/magazines/business2/business2_archive/2007/03/01/8401021/"
}
