{
  "by" : "akkartik",
  "id" : 376,
  "kids" : [ 396, 397, 4757, 454807 ],
  "parent" : 363,
  "text" : "I think comments are where the action is. Three simple things that get most of the bang of markdown IMO: Working permalinks for comments, paragraph dividers and clickable links.",
  "time" : 1172089740,
  "type" : "comment"
}
