{
  "by" : "akkartik",
  "id" : 378,
  "kids" : [ 393, 454809 ],
  "parent" : 374,
  "text" : "Why not submit a blog post the normal way? Is this a separate kind of post?",
  "time" : 1172089936,
  "type" : "comment"
}
