{
  "by" : "onebeerdave",
  "descendants" : 0,
  "id" : 4,
  "kids" : [ 454413 ],
  "score" : 5,
  "time" : 1160419662,
  "title" : "NYC Developer Dilemma",
  "type" : "story",
  "url" : "http://avc.blogs.com/a_vc/2006/10/the_nyc_develop.html"
}
