{
  "by" : "pg",
  "descendants" : 0,
  "id" : 40,
  "kids" : [ 454460 ],
  "score" : 3,
  "time" : 1160513941,
  "title" : "Scoble: Google web apps &#34;will sneak in the back door&#34;",
  "type" : "story",
  "url" : "http://www.cioinsight.com/print_article2/0,1217,a=190067,00.asp"
}
