{
  "by" : "Elfan",
  "id" : 408,
  "kids" : [ 1195, 454839 ],
  "parent" : 363,
  "text" : "- Some way to mark as read/downvote/hide.  I prefer to be able to go through the &#34;new&#34; section and do this.\r\n\r\n- Comment history in profile.\r\n\r\n- &#34;Best of&#34; history.\r\n\r\n- This is a silly little thing, but make the X comments/discuss link larger.  I usually go down the page and open that page for any interesting article in a new tab.\r\n\r\n- Someway to format posts so ones like this don't look silly and return to the main page thread after editing.",
  "time" : 1172098135,
  "type" : "comment"
}
