{
  "by" : "jwecker",
  "id" : 443,
  "kids" : [ 489, 454877 ],
  "parent" : 168,
  "text" : "OK everyone, so what is Web 3.0 (or Enterprise 2.0 or whatever)?  My bet is on xulrunner type highly responsive local apps with persistent connections to the server (which is possible with something like yaws, not really with apache).  Kind of a client-server model where the server is Internet based (though, of course, no one will dare say the words client-server).",
  "time" : 1172111658,
  "type" : "comment"
}
