{
  "by" : "pg",
  "descendants" : 55,
  "id" : 445,
  "kids" : [ 452, 628, 446, 816, 3490, 479, 680, 450, 454879 ],
  "score" : 32,
  "time" : 1172112890,
  "title" : "Applications open for summer 2007 YC funding",
  "type" : "story",
  "url" : "http://ycombinator.com/summer07.html"
}
