{
  "by" : "goldfish",
  "descendants" : 0,
  "id" : 46,
  "kids" : [ 454470 ],
  "score" : 4,
  "time" : 1160581168,
  "title" : "Rentometer: Check How Your Rent Compares to Others in Your Area",
  "type" : "story",
  "url" : "http://www.rentometer.com/"
}
