{
  "by" : "herdrick",
  "descendants" : 0,
  "id" : 465,
  "kids" : [ 454900 ],
  "score" : 3,
  "time" : 1172124294,
  "title" : "Hackers - Heroes of the Computer Revolution (book)",
  "type" : "story",
  "url" : "http://www.stevenlevy.com/index.php/other-books/hackers"
}
