{
  "by" : "phil",
  "descendants" : 2,
  "id" : 475,
  "kids" : [ 476, 454910 ],
  "score" : 11,
  "time" : 1172134122,
  "title" : "Google Apps Premier",
  "type" : "story",
  "url" : "http://www.techcrunch.com/2007/02/21/google-launches-apps-premier/"
}
