{
  "by" : "perler",
  "descendants" : 0,
  "id" : 5,
  "kids" : [ 454414 ],
  "score" : 7,
  "time" : 1160419864,
  "title" : "Google, YouTube acquisition announcement could come tonight",
  "type" : "story",
  "url" : "http://www.techcrunch.com/2006/10/09/google-youtube-sign-more-separate-deals/"
}
