{
  "by" : "pg",
  "descendants" : 0,
  "id" : 62,
  "kids" : [ 454486 ],
  "score" : 3,
  "time" : 1166112730,
  "title" : "Productivity Surges During Reddit Downtime",
  "type" : "story",
  "url" : "http://rura.org/blog/2006/12/13/productivity-surges-amid-reddit-downtime/"
}
