{
  "by" : "kul",
  "descendants" : 2,
  "id" : 63,
  "kids" : [ 2686, 554, 454488 ],
  "score" : 25,
  "time" : 1171852224,
  "title" : "From Oxford to Silicon Valley",
  "type" : "story",
  "url" : "http://news.bbc.co.uk/2/hi/business/6355289.stm"
}
