{
  "by" : "onebeerdave",
  "descendants" : 0,
  "id" : 72,
  "kids" : [ 454498 ],
  "score" : 3,
  "time" : 1171855419,
  "title" : "New Revenue Stream For Bloggers: TextMark SMS Alerts",
  "type" : "story",
  "url" : "http://www.techcrunch.com/2007/02/18/new-revenue-stream-for-bloggers-textmark-sms-alerts/"
}
