{
  "by" : "phyllis",
  "descendants" : 1,
  "id" : 75,
  "kids" : [ 200, 454501 ],
  "score" : 13,
  "time" : 1171858040,
  "title" : "Learning from Founders",
  "type" : "story",
  "url" : "http://www.paulgraham.com/foundersatwork.html"
}
