{
  "by" : "nate",
  "descendants" : 0,
  "id" : 85,
  "kids" : [ 85945, 454515 ],
  "score" : 5,
  "time" : 1171906738,
  "title" : "Hack your desk to remove the clutter",
  "type" : "story",
  "url" : "http://lifehacker.com/software/diy/diy-underdesk-gadget-mount-237789.php"
}
