{
  "by" : "emmett",
  "descendants" : 0,
  "id" : 97,
  "kids" : [ 454525 ],
  "score" : 11,
  "time" : 1171909762,
  "title" : "An Overview of the Five Gazillion Video Startups",
  "type" : "story",
  "url" : "http://www.readwriteweb.com/archives/online_video_index.php"
}
