{
  "by" : "tuukkah",
  "id" : 40008,
  "kids" : [ 40028, 40021 ],
  "parent" : 39939,
  "text" : "\"Don't incorporate, though, if you can avoid it. We're less likely to accept groups that are already incorporated, because it costs so much more to deal with existing documents than to start from scratch.\" <a href=\"http://ycombinator.com/faq.html\" rel=\"nofollow\">http://ycombinator.com/faq.html</a>",
  "time" : 1186471198,
  "type" : "comment"
}
