{
  "by" : "rchambers",
  "descendants" : 0,
  "id" : 40013,
  "score" : 1,
  "text" : "Max Levchin already changed electronic commerce as a co-founder of PayPal, an online payment service that is expected to process more than $40 billion in transactions this year.",
  "time" : 1186475813,
  "title" : "Ads to be added to up-and-coming widgets",
  "type" : "story",
  "url" : "http://www.msnbc.msn.com/id/20147281/"
}
