{
  "by" : "davidw",
  "id" : 40021,
  "kids" : [ 40066 ],
  "parent" : 40008,
  "text" : "Presumably he's part of the 99.9% of companies out there who aren't lucky enough to have YC as an option.",
  "time" : 1186481799,
  "type" : "comment"
}
