{
  "by" : "transburgh",
  "descendants" : 0,
  "id" : 40045,
  "score" : 1,
  "text" : "",
  "time" : 1186491885,
  "title" : "Ready To Kill Some Time (And Some Enemies)?",
  "type" : "story",
  "url" : "http://www.techcrunch.com/2007/08/06/ready-to-kill-some-time-and-some-enemies-try-duelscom/"
}
