{
  "by" : "rfrey",
  "id" : 40082,
  "parent" : 39673,
  "text" : "Salt was an excellent metaphor to choose because it removes scarcity as an issue.  Property rights developed in an environment of scarcity: when I take something from you I deprive you of its use.  Obviously copyright infringement does not deprive the copyright owner of use of the material.  It does diminish the value of the copyright, though.<p>When framed this way, debate can be about the validity of the copyright or intellectual property rather than whether \"stealing\" is OK.  The colonial \"copyright\" on salt was clearly not justified; a copyright on \"one-click\" purchases seems silly; the copyright on the Office 2007 ribbon seems more justified.  In any case the debate is focussed on what it should be.",
  "time" : 1186498850,
  "type" : "comment"
}
