{
  "by" : "joshwa",
  "descendants" : 2,
  "id" : 40098,
  "kids" : [ 40238, 40465 ],
  "score" : 9,
  "text" : "",
  "time" : 1186502729,
  "title" : "Open is Not Better... Better is Better.",
  "type" : "story",
  "url" : "http://500hats.typepad.com/500blogs/2007/08/facebook-not-fo.html"
}
