{
  "by" : "oxyona",
  "descendants" : 0,
  "id" : 40111,
  "score" : 5,
  "text" : "",
  "time" : 1186503904,
  "title" : "How are companies in Silicon Valley hiring?",
  "type" : "story",
  "url" : "http://www.instigatorblog.com/how-are-companies-in-silicon-valley-hiring/2007/08/06/"
}
