{
  "by" : "run4yourlives",
  "id" : 40133,
  "parent" : 40034,
  "text" : "If you have to ask the question, you probably don't have to worry about it. :-)",
  "time" : 1186507943,
  "type" : "comment"
}
