{
  "by" : "iamyoohoo",
  "id" : 40146,
  "parent" : 40121,
  "text" : "1. Having a go at it alone.\n2. Taking too long to launch - fail early, fail often, iterate.\n3. In-efficient outsourcing.\n",
  "time" : 1186509004,
  "type" : "comment"
}
