{
  "by" : "run4yourlives",
  "id" : 40157,
  "kids" : [ 40172 ],
  "parent" : 40151,
  "text" : "Those are good points. <p>&#62;That's a non-sequitor. The reasoning is the same as \"Google won't be around for long; for proof, look no further than AltaVista<p>Difference being in everyone of your examples:<p>1. The product is in a near monopoly position\n2. None rely on ads as a sole means of income \n3. Microsoft isn't overvalued. Google will probably see a share correction soon, or at least during the next downturn. <p>&#62;Users and customers can often be two disjoint sets. Broadcast TV provides significant value to its viewers, but its viewers aren't the customers; the advertisers are.<p>Good initial point there. Interesting though that you picked broadcast TV. It's no secret that traditional TV is losing audiences fast. In fact, you could argue that TV proves that my analogy works across mediums. Again, the big difference is that valuations are reflecting reality here, whereas this isn't the case in web land.<p>",
  "time" : 1186510264,
  "type" : "comment"
}
