{
  "by" : "nostrademons",
  "id" : 40172,
  "kids" : [ 40176 ],
  "parent" : 40157,
  "text" : "&#62; 2. None rely on ads as a sole means of income<p>Google does.  (Aside from products like the Google Search Appliance, which are basically negligible in revenues.)<p>&#62; It's no secret that traditional TV is losing audiences fast.<p>Well, yeah, but it's had them for 50 years.  If you wanna argue that FaceBook won't be around in 50 years, you'll get little argument from me.  However, there's a good chance <i>I</i> won't be around in 50 years, so I also don't really care.<p>I thought your point is that there's a good chance FaceBook won't be around in <i>one</i> year.  That's certainly possible, but I don't really see a case for it from the evidence you've presented.  All your arguments apply to broadcast TV c. 1950, but if you'd bet that CBS would be out of business in 1951, you would've been very, very, wrong.<p>If you want to make the more general point that advertising-supported businesses are hurt badly in recessions - that's true, and fairly well-known throughout the financial industry.  However, <i>lots</i> of businesses are hurt badly in recessions.  In 1929, nearly the entire financial industry was wiped out - thousands of banks closed, investment trusts (the 1920s equivalent of hedge funds) disappeared and didn't reappear until the 1950s, mutual funds underwent stiff regulation, stockbrokers quit and (legend has it) committed suicide.  That's far worse than what happened to the entertainment and advertising industry.  Capital goods also suffer, the auto industry downsizes, construction gets hit hard, farmers foreclose on their mortgages, etc.  Basically the only industries that do well are consumer staples, entertainment, and vices (alcohol/tobacco/gambling).<p>One of my major reasons for making the leap to entrepreneurship is that if the economy soars, I do much better with my own business, yet if the economy tanks, my job at a financial software startup is toast.  If I'm screwed anyways, might as well enjoy the upside.",
  "time" : 1186512531,
  "type" : "comment"
}
