{
  "by" : "papersmith",
  "id" : 40207,
  "kids" : [ 40415, 40371 ],
  "parent" : 40059,
  "text" : "Just curious, did they need H1B visa (or other paperworks) for the first few months in the states?",
  "time" : 1186516675,
  "type" : "comment"
}
