{
  "by" : "AF",
  "id" : 40230,
  "kids" : [ 40235 ],
  "parent" : 40170,
  "text" : "Can someone explain to me why all these startup companies end up in California? Surely there are much more economical places to run a tech company from. Is it just the connections?",
  "time" : 1186519912,
  "type" : "comment"
}
